Step,ObjectName,Description,Action,Input,Condition,Reference
1,Browser,Open the Url [<Data>] in the Browser,Open,Desktop:Search,,
2,Browser,"Refresh current page ",refreshDriver,,,
3,ShopNow,Click on [<Object>],conditionalWait,,,SPP
4,ShopNow,Click on [<Object>],clickByJS,,,SPP
5,Browser,switching to window by title [<Data>] is done,switchToWindowByIndex,@1,,
6,AddtoBag,Click on [<Object>],conditionalWait,,,SPP
7,AddtoBag,Click on [<Object>],clickByJS,,,SPP
8,Browser,Wait for Page to be loaded,waitForPageLoaded,,,
9,Browser,Wait for [<Data>] milli seconds,pause,@3000,,
