Step,ObjectName,Description,Action,Input,Condition,Reference
1,Browser,Wait for [<Data>] milli seconds,pause,@10000,,
2,First Name,Enter the value [<Data>] in the Field [<Object>],Set,Desktop:KFirstName,,AddressFields
3,Last Name,Enter the value [<Data>] in the Field [<Object>],Set,Desktop:LastName,,AddressFields
4,KatakanaFirstName,Enter the value [<Data>] in the Field [<Object>],Set,Desktop:Gift card no,,AddressFields
5,KatakanaLastName,Enter the value [<Data>] in the Field [<Object>],Set,Desktop:Gift card pin,,AddressFields
6,Passoword,Enter the value [<Data>] in the Field [<Object>],Set,Desktop:Password,,AddressFields
7,Verify Password,Enter the value [<Data>] in the Field [<Object>],Set,Desktop:Password,,AddressFields
8,Zip Code,Enter the value [<Data>] in the [<Object>] if it exists,SetIfExists,Desktop:Zipcode,,AddressFields
9,STATE,Enter the value [<Data>] in the Field [<Object>],selectByIndex,@13,,AddressFields
10,City,Enter the value [<Data>] in the Field [<Object>],Set,Desktop:City,,AddressFields
11,Address 1,Enter the value [<Data>] in the Field [<Object>],Set,Desktop:Address,,AddressFields
12,Phone,Enter the value [<Data>] in the Field [<Object>],Set,Desktop:Phone,,AddressFields
13,Different Address,Click on [<Object>],clickByJS,,,AddressFields
14,Month,Select all options from a select Element [<Object>],selectByIndex,@6,,AddressFields
15,Day,Select all options from a select Element [<Object>],selectByIndex,@15,,AddressFields
16,Year,Select all options from a select Element [<Object>],selectByIndex,@12,,AddressFields
17,Sex,Click on [<Object>],clickByJS,,,AddressFields
18,Browser,Wait for [<Data>] milli seconds,pause,@6000,,
19,Submit,Click on [<Object>],clickByJS,,,AddressFields
20,Browser,Wait for Page to be loaded,waitForPageLoaded,,,
21,Browser,Wait for [<Data>] milli seconds,pause,@6000,,
22,CC,"Wait for [<Object>] to be clickable ",waitForElementToBeClickable,,,AddressFields
23,CC,Click on [<Object>],clickByJS,,,AddressFields
24,Browser,Wait for [<Data>] milli seconds,pause,@3000,,
