Step,ObjectName,Description,Action,Input,Condition,Reference
1,Browser,,pause,@5000,,
2,Browser,,sendKeysToWindow,@Esc,,
3,Email New user,,SetIfExists,Desktop:UserName,,Checkout
4,Continue New user,,clickByJS,,,Checkout
5,Browser,,pause,@10000,,
