Step,ObjectName,Description,Action,Input,Condition,Reference
1,Browser,Wait for Page to be loaded,waitForPageLoaded,,,
2,First Name,Enter the value [<Data>] in the Field [<Object>],conditionalWait,,,AddressFields
3,First Name,Click on [<Object>],clickByJS,,,AddressFields
4,First Name,Enter the value [<Data>] in the Field [<Object>],setByJS,Desktop:FirstName,,AddressFields
"//5",Last Name,Enter the value [<Data>] in the Field [<Object>],Set,Desktop:LastName,,AddressFields
"//6",KatakanaFirstName,Enter the value [<Data>] in the Field [<Object>],Set,Desktop:KFirstName,,AddressFields
"//7",KatakanaLastName,Enter the value [<Data>] in the Field [<Object>],Set,Desktop:KlastName,,AddressFields
"//8",Passoword,Enter the value [<Data>] in the Field [<Object>],Set,Desktop:Password,,AddressFields
"//9",Verify Password,Enter the value [<Data>] in the Field [<Object>],Set,Desktop:Password,,AddressFields
10,Zip Code,Enter the value [<Data>] in the [<Object>] if it exists,SetIfExists,Desktop:Zipcode,,AddressFields
11,STATE,Click on [<Object>],clickByJS,,,AddressFields
12,STATE,Send Keys [<Data>]  to object [<Object>].,sendKeysToElement,@down,,AddressFields
13,STATE,Send Keys [<Data>]  to object [<Object>].,sendKeysToElement,@down,,AddressFields
14,STATE,Send Keys [<Data>]  to object [<Object>].,sendKeysToElement,@enter,,AddressFields
15,City,Click on [<Object>],clickByJS,,,AddressFields
16,City,Send Keys [<Data>]  to object [<Object>].,sendKeysToElement,@down,,AddressFields
17,City,Send Keys [<Data>]  to object [<Object>].,sendKeysToElement,@down,,AddressFields
18,City,Send Keys [<Data>]  to object [<Object>].,sendKeysToElement,@enter,,AddressFields
19,Address 1,Enter the value [<Data>] in the Field [<Object>],Set,Desktop:Address,,AddressFields
20,Phone,Enter the value [<Data>] in the Field [<Object>],Set,Desktop:Phone,,AddressFields
"//21",Month,Select all options from a select Element [<Object>],selectByIndex,@6,,AddressFields
"//22",Day,Select all options from a select Element [<Object>],selectByIndex,@15,,AddressFields
"//23",Year,Select all options from a select Element [<Object>],selectByIndex,@12,,AddressFields
"//24",Sex,Click on [<Object>],clickByJS,,,AddressFields
"//25",Submit,Click on [<Object>],conditionalWait,,,AddressFields
"//26",Submit,Click on [<Object>],clickByJS,,,AddressFields
"//27",Browser,Wait for Page to be loaded,waitForPageLoaded,,,
"//28",CC,"Wait for [<Object>] to be clickable ",conditionalWait,,,AddressFields
"//29",CC,Click on [<Object>],clickByJS,,,AddressFields
30,Continue Shipping,Click on [<Object>],conditionalWait,,,AddressFields
31,Continue Shipping,Click on [<Object>],clickByJS,,,AddressFields
32,Browser,Wait for Page to be loaded,waitForPageLoaded,,,
33,Browser,Wait for [<Data>] milli seconds,pause,@6000,,
34,First Name,Enter the value [<Data>] in the Field [<Object>],setByJS,Desktop:FirstName,,AddressFields
35,Continue Shipping,"click on ",conditionalWait,,,AddressFields
36,Continue Shipping,Click on [<Object>],clickByJS,,,AddressFields
37,Browser,Wait for Page to be loaded,waitForPageLoaded,,,
38,Browser,Wait for [<Data>] milli seconds,pause,@5000,,
