Step,ObjectName,Description,Action,Input,Condition,Reference
1,Browser,,pause,@5000,,
2,Browser,,sendKeysToWindow,@Esc,,
3,Browser,,scrollTo,"@250,400",,
4,PasswordAfterCheckout,,SetIfExists,Desktop:Password,,Checkout
5,T&CConfirm,Click on [<Object>],clickByJS,,,Checkout
6,ContinueAfterCheckout,,ClickIfExists,,,Checkout
7,Browser,,waitForPageLoaded,,,
8,Browser,,pause,@8000,,
9,SignOut,,ClickIfExists,,,Checkout
10,Browser,,waitForPageLoaded,,,
