Step,ObjectName,Description,Action,Input,Condition,Reference
1,SHIP_ADDRESS_ID,Wait untill given condition is satisfied,conditionalWait,,,Checkout
2,SHIP_ADDRESS_ID,Click on [<Object>],clickByJS,,,Checkout
3,Edit Address,Click the [<Object>] if it exists,conditionalWait,,,Missing Elements
4,Edit Address,Click the [<Object>] if it exists,clickByJS,,,Missing Elements
5,Cell phone,Enter the value [<Data>] in the Field [<Object>],conditionalWait,,,Missing Elements
6,Cell phone,Enter the value [<Data>] in the Field [<Object>],Set,Desktop:Phone,,Missing Elements
"//7",EditFirstName,Enter the value [<Data>] in the Field [<Object>],Set,Desktop:KlastName,,Missing Elements
8,SubmitAddressEdit,Click on [<Object>],clickByJS,,,Missing Elements
9,Browser,Wait for Page to be loaded,waitForPageLoaded,,,
