Step,ObjectName,Description,Action,Input,Condition,Reference
1,Browser,,pause,@15000,,
2,Continue payment,,ClickIfExists,,,Checkout
3,Browser,,pause,@10000,,
4,Place Order,,waitForElementToBePresent,,,Checkout
5,Place Order,,clickByJS,,,Checkout
6,Browser,,pause,@5000,,
7,Close,,ClickIfExists,,,UnusedElements
8,Browser,,pause,@3000,,
9,Ordernumber,,storeTextinDataSheet,Desktop:Ordernumber,,Checkout
