Step,ObjectName,Description,Action,Input,Condition,Reference
1,Browser,,Open,Desktop:SPP6,,
2,Browser,,waitForPageLoaded,,,
3,Browser,,pause,@2000,,
4,Browser,,sendKeysToWindow,@Esc,,
5,Browser,,scrollTo,"@250,450",,
6,FavouriteIcon,,clickByJS,,,SPP
8,Browser,,pause,@5000,,
9,Browser,,Open,Desktop:SPP7,,
10,Browser,,waitForPageLoaded,,,
11,Browser,,pause,@2000,,
12,Browser,,sendKeysToWindow,@Esc,,
13,Browser,,scrollTo,"@250,450",,
14,FavouriteIcon,,clickByJS,,,SPP
16,Browser,,Open,Desktop:SPP8,,
17,Browser,,waitForPageLoaded,,,
18,Browser,,pause,@2000,,
19,Browser,,sendKeysToWindow,@Esc,,
20,Browser,,scrollTo,"@250,450",,
21,FavouriteIcon,,clickByJS,,,SPP
23,Browser,,Open,Desktop:SPP9,,
24,Browser,,waitForPageLoaded,,,
25,Browser,,pause,@2000,,
26,Browser,,sendKeysToWindow,@Esc,,
27,Browser,,scrollTo,"@250,450",,
28,FavouriteIcon,,clickByJS,,,SPP
30,Browser,,pause,@5000,,
31,Browser,,Open,Desktop:SPP10,,
32,Browser,,waitForPageLoaded,,,
33,Browser,,pause,@2000,,
34,Browser,,sendKeysToWindow,@Esc,,
35,Browser,,scrollTo,"@250,450",,
36,FavouriteIcon,,clickByJS,,,SPP
38,Browser,,pause,@5000,,
