Step,ObjectName,Description,Action,Input,Condition,Reference
1,Browser,,Open,Desktop:MyAccountURL,,
2,Browser,,waitForPageLoaded,,,
3,Browser,,pause,@12000,,
4,BillingInfo,,waitForElementToBeVisible,,,MyaccountMobile
5,BillingInfo,,clickByJS,,,MyaccountMobile
6,Browser,,waitForPageLoaded,,,
7,Browser,,pause,@5000,,
8,AddNewCardPC,,clickByJS,,,AddressBook
9,Browser,,waitForPageLoaded,,,
10,Browser,,assertUrlContains,@payment_info,,
11,Browser,,pause,@5000,,
12,PleaseSelect,,selectByIndex,@4,,AddPayment
13,CC,,Set,Desktop:CC,,Checkout
14,Month,,selectByIndex,@5,,Checkout
15,Year,,selectByIndex,@5,,Checkout
16,MakeDefaultPayment,,clickByJS,,,AddPayment
17,SelectAddress,,selectByIndex,@1,,AddPayment
18,Browser,,pause,@5000,,
19,Submit,,clickByJS,,,AddPayment
20,Browser,,waitForPageLoaded,,,
21,Browser,,pause,@5000,,
