Step,ObjectName,Description,Action,Input,Condition,Reference
1,Browser,Open the Url [<Data>] in the Browser,Open,Desktop:MyAccountURL,,
2,Browser,Wait for Page to be loaded,waitForPageLoaded,,,
3,ShippingandBilling,"Wait for [<Object>] to be visible ",conditionalWait,,,AddressBook
4,ShippingandBilling,"Click the [<Object>] ",Click,,,AddressBook
5,AddNewAddress,"Click the [<Object>] ",conditionalWait,,,AddressBook
6,AddNewAddress,"Click the [<Object>] ",Click,,,AddressBook
7,First Name,Enter the value [<Data>] in the Field [<Object>],conditionalWait,,,AddressFields
8,First Name,Enter the value [<Data>] in the Field [<Object>],Set,Desktop:KFirstName,,AddressFields
"//9",BillingLastName,Enter the value [<Data>] in the Field [<Object>],Set,Desktop:LastName,,AddressFields
"//10",Last name (phonetic):,Enter the value [<Data>] in the Field [<Object>],Set,Desktop:Gift card no,,AddressFields
"//11",Name (phonetic):,Enter the value [<Data>] in the Field [<Object>],Set,Desktop:Gift card pin,,AddressFields
12,STATE,Enter the value [<Data>] in the Field [<Object>],selectByIndex,@13,,AddressFields
13,City,Click on [<Object>],clickByJS,,,AddressFields
14,City,Enter the value [<Data>] in the Field [<Object>],sendKeysToElement,@down,,AddressFields
15,City,Send Keys [<Data>]  to object [<Object>].,sendKeysToElement,@down,,AddressFields
16,City,Send Keys [<Data>]  to object [<Object>].,sendKeysToElement,@enter,,AddressFields
17,Address 1,Enter the value [<Data>] in the Field [<Object>],Set,Desktop:Address,,AddressFields
18,Zip Code,Enter the value [<Data>] in the [<Object>] if it exists,Set,Desktop:Zipcode,,AddressFields
19,Phone,Enter the value [<Data>] in the Field [<Object>],Set,Desktop:Phone,,AddressFields
"//20",Default Address,Click on [<Object>],clickByJS,,,AddressFields
21,Submit,Click on [<Object>],clickByJS,,,AddressBook
22,Browser,Wait for Page to be loaded,waitForPageLoaded,,,
