Step,ObjectName,Description,Action,Input,Condition,Reference
1,Browser,,Open,Desktop:MyAccountURL,,
2,Browser,,waitForPageLoaded,,,
3,Browser,,pause,@5000,,
4,AccountProfile,,clickByJS,,,View
5,Browser,,waitForPageLoaded,,,
6,UploadPhoto,,ClickIfExists,,,MobileElements
7,Browser,,pause,@5000,,
8,UploadPhoto,,ClickIfExists,,,Cosmetics
9,Browser,,pause,@5000,,
10,ChooseFile,,clickByJS,,,Cosmetics
11,Browser,,pause,@3000,,
12,App,,openApp,@D:\Development_Avecto\AUTOIT\FileUpload.exe,,
13,Browser,,pause,@5000,,
14,SaveFile,,clickByJS,,,Cosmetics
15,Browser,,pause,@8000,,
16,RemovePhoto,,assertElementPresent,,,Cosmetics
//17,RemovePhoto,,clickByJS,,,Cosmetics
//18,Browser,,pause,@5000,,
//19,Browser,,sendKeysToWindow,@Enter,,
//20,Browser,,pause,@3000,,
//21,Browser,,refreshDriver,,,
//22,Browser,,pause,@3000,,
