Step,ObjectName,Description,Action,Input,Condition,Reference
1,Browser,Open the Url [<Data>] in the Browser,Open,Desktop:MyAccountURL,,
2,Browser,Wait for Page to be loaded,waitForPageLoaded,,,
3,Browser,Wait for [<Data>] milli seconds,pause,@5000,,
4,SignOut,Click the [<Object>] if it exists,clickByJS,,,Checkout
5,Browser,Wait for Page to be loaded,waitForPageLoaded,,,
6,Browser,Wait for [<Data>] milli seconds,pause,@3000,,
7,Browser,Send Keys [<Data>]  to Window.,sendKeysToWindow,@Esc,,
