Step,ObjectName,Description,Action,Input,Condition,Reference
"//1",Execute,,BaseRC:OpenAutoIt,,,
2,Execute,,BaseRC:AndroidAuthentication,,,
"//3",Execute,,BaseRC:TestOrder,,,
4,Execute,,BaseRC:AddOneProductToCart,,,
5,Execute,,TC01:ViewCartNavigation,,,
6,Execute,,TC08:OfferCodeNegativeValidation,,,
"//7",Execute,,BaseRC:AddThreeProductsToCart,,,
"//8",Execute,,TC01:ViewCartNavigation,,,
"//9",Execute,,TC08:OfferCodePositiveValidation,,,
10,Execute,,TC01:PageNavTillSamples,,,
11,Execute,,TC01:NewuserFlow,,,
12,Execute,,TC01:AddressDetails,,,
13,Execute,,TC01:PlaceOrder,,,
14,Execute,,BaseRC:OrderNumber,,,
15,Execute,,BaseRC:SignOut,,,
"//16",Execute,,BaseRC:CloseAutoIt,,,
