Step,ObjectName,Description,Action,Input,Condition,Reference
1,Browser,"Refresh current page ",refreshDriver,,,
2,Browser,Wait for Page to be loaded,waitForPageLoaded,,,
3,Zipcode,Enter the value [<Data>] in the Field [<Object>],conditionalWait,,,Store
4,Zipcode,Enter the value [<Data>] in the Field [<Object>],Set,Desktop:Address,,Store
5,FindStore,Click on [<Object>],conditionalWait,,,Store
6,FindStore,Click on [<Object>],clickByJS,,,Store
7,Store2,Assert if [<Object>] element is displayed,conditionalWait,,,Store
8,Store2,Assert if [<Object>] element is displayed,assertElementDisplayed,,,Store
