Step,ObjectName,Description,Action,Input,Condition,Reference
1,Browser,Open the Url [<Data>] in the Browser,Open,@https://e.labseries.cn.cn.dev.cntel.elcdev.net/locations,,
2,Browser,Wait for Page to be loaded,waitForPageLoaded,,,
