Scenario,Flow,Iteration,SubIteration,URL,UserName,Password,FirstName,LastName,KFirstName,KlastName,Address,Zipcode,City,State,Phone,CC,CVV,Offercode,Gift card no,Gift card pin,Ordernumber,PPEmail,PPpassword,AppPath,ViewcartURL,BillingZipcode,BillingCity,MyAccountURL,SPP1,SPP2,SPP3,SPP4,SPP5,SPP6,SPP7,SPP8,SPP9,SPP10,Search,EmailUpdate,PasswordUpdate,StartLocation,MPP,OfferCode1,MobileURL,DD,MM,YY,NewColumn0,HTTPS
TestScripts-PC,TC01_NU_10products_cartpagechecks_checkout,1,1,https://e.labseries.cn.cn.stage.cntel.elcdev.net,hara011@163.com,123456,Tester,test,古舘,百璽,122 Liuhua Rd,572000,Guangdong,Guangzhou,32165498796,4111110000000000,312,pdtest,,,Your confirmation number is 13866838.,sjarre_1360284165_per@gmail.com,elconline,,https://e.labseries.cn.cn.stage.cntel.elcdev.net/checkout/viewcart.tmpl,,,https://e.labseries.cn.cn.stage.cntel.elcdev.net/account/index.tmpl,https://e.labseries.cn.cn.stage.cntel.elcdev.net/product/1528/4712/clean/oil-control-face-wash,https://e.labseries.cn.cn.stage.cntel.elcdev.net/product/1528/4601/clean/multi-action-face-wash,https://e.labseries.cn.cn.stage.cntel.elcdev.net/product/14984/23870/tone/max-ls-skin-recharging-water-lotion,https://e.labseries.cn.cn.stage.cntel.elcdev.net/product/14984/42778/tone/water-lotion/water-lotion-upgrade,https://e.labseries.cn.cn.stage.cntel.elcdev.net/product/14983/19621/spf/bb-tinted-moisturizer-spf35-pa,https://e.labseries.cn.cn.stage.cntel.elcdev.net/product/1530/44638/moisturize/pro-ls-all-in-one-hydrating-gel,https://e.labseries.cn.cn.stage.cntel.elcdev.net/product/1530/40929/moisturize/age-rescue-face-lotion--limited-edition-bonus-size,https://e.labseries.cn.cn.stage.cntel.elcdev.net/product/1530/44440/moisturize/maxellence-the-dual-concentrate,https://e.labseries.cn.cn.stage.cntel.elcdev.net/product/14985/38350/repair/max-ls-power-v-lifting-serum,https://e.labseries.cn.cn.stage.cntel.elcdev.net/product/1530/44439/moisturize/maxellence-the-singular-cream,https://e.labseries.cn.cn.stage.cntel.elcdev.net/esearch?form_id=perlgem_search_form&search=face,,,,https://e.labseries.cn.cn.stage.cntel.elcdev.net/max-ls,,,,,1,,
TestScripts-Mobile,TC01_NU_10products_cartpagechecks_checkout,1,1,http://m.e.labseries.cn.cn.stage.cntel.elcdev.net,hara011@163.com,123456,Tester,test,古舘,百璽,122 Liuhua Rd,572000,Guangdong,Guangzhou,32165498796,4111110000000000,312,pdtest,,,,sjarre_1360284165_per@gmail.com,elconline,,https://m.e.labseries.cn.cn.stage.cntel.elcdev.net/checkout/viewcart.tmpl,,,https://m.elabseries.cn.cn.stage.cntel.elcdev.net/account/index.tmpl,http://m.e.labseries.cn.cn.stage.cntel.elcdev.net/product/1528/4712/clean/oil-control-face-wash,http://m.e.labseries.cn.cn.stage.cntel.elcdev.net/product/1528/4601/clean/multi-action-face-wash,https://m.e.labseries.cn.cn.stage.cntel.elcdev.net/product/14984/23870/tone/max-ls-skin-recharging-water-lotion,https://m.e.labseries.cn.cn.stage.cntel.elcdev.net/product/14984/42778/tone/water-lotion/water-lotion-upgrade,https://m.e.labseries.cn.cn.stage.cntel.elcdev.net/product/14983/19621/spf/bb-tinted-moisturizer-spf35-pa,https://m.e.labseries.cn.cn.stage.cntel.elcdev.net/product/1530/44638/moisturize/pro-ls-all-in-one-hydrating-gel,https://m.e.labseries.cn.cn.stage.cntel.elcdev.net/product/1530/40929/moisturize/age-rescue-face-lotion--limited-edition-bonus-size,https://m.e.labseries.cn.cn.stage.cntel.elcdev.net/product/1530/44440/moisturize/maxellence-the-dual-concentrate,https://m.e.labseries.cn.cn.stage.cntel.elcdev.net/product/14985/38350/repair/max-ls-power-v-lifting-serum,https://m.e.labseries.cn.cn.stage.cntel.elcdev.net/product/1530/44439/moisturize/maxellence-the-singular-cream,https://m.e.labseries.cn.cn.stage.cntel.elcdev.net/esearch?form_id=perlgem_search_form&search=face,,,,https://m.e.labseries.cn.cn.stage.cntel.elcdev.net/max-ls,,,,,1,,
TestScripts-PC,TC02_RU_onfile_itemsincart_cartpagechecks_checkout,1,1,https://e.labseries.cn.cn.stage.cntel.elcdev.net,hara011@163.com,123456,Tester,test,古舘,百璽,122 Liuhua Rd,572000,Guangdong,Guangzhou,32165498796,4111110000000000,312,pdtest,,,お客様のご注文番号 : 1002000592,sjarre_1360284165_per@gmail.com,elconline,,https://e.labseries.cn.cn.stage.cntel.elcdev.net/checkout/viewcart.tmpl,,,https://e.labseries.cn.cn.stage.cntel.elcdev.net/account/index.tmpl,https://e.labseries.cn.cn.stage.cntel.elcdev.net/product/1528/4712/clean/oil-control-face-wash,https://e.labseries.cn.cn.stage.cntel.elcdev.net/product/1528/4601/clean/multi-action-face-wash,https://e.labseries.cn.cn.stage.cntel.elcdev.net/product/14984/23870/tone/max-ls-skin-recharging-water-lotion,https://e.labseries.cn.cn.stage.cntel.elcdev.net/product/14984/42778/tone/water-lotion/water-lotion-upgrade,https://e.labseries.cn.cn.stage.cntel.elcdev.net/product/14983/19621/spf/bb-tinted-moisturizer-spf35-pa,https://e.labseries.cn.cn.stage.cntel.elcdev.net/product/1530/44638/moisturize/pro-ls-all-in-one-hydrating-gel,https://e.labseries.cn.cn.stage.cntel.elcdev.net/product/1530/40929/moisturize/age-rescue-face-lotion--limited-edition-bonus-size,https://e.labseries.cn.cn.stage.cntel.elcdev.net/product/1530/44440/moisturize/maxellence-the-dual-concentrate,https://e.labseries.cn.cn.stage.cntel.elcdev.net/product/14985/38350/repair/max-ls-power-v-lifting-serum,https://e.labseries.cn.cn.stage.cntel.elcdev.net/product/1530/44439/moisturize/maxellence-the-singular-cream,https://e.labseries.cn.cn.stage.cntel.elcdev.net/esearch?form_id=perlgem_search_form&search=face,,,,https://e.labseries.cn.cn.stage.cntel.elcdev.net/max-ls,,,,,1,,
TestScripts-Mobile,TC02_RU_onfile_itemsincart_cartpagechecks_checkout,1,1,http://m.e.labseries.cn.cn.stage.cntel.elcdev.net,hara011@163.com,123456,Tester,test,古舘,百璽,122 Liuhua Rd,572000,Guangdong,Guangzhou,32165498796,4111110000000000,312,pdtest,,,,sjarre_1360284165_per@gmail.com,elconline,,https://m.e.labseries.cn.cn.stage.cntel.elcdev.net/checkout/viewcart.tmpl,,,https://m.elabseries.cn.cn.stage.cntel.elcdev.net/account/index.tmpl,http://m.e.labseries.cn.cn.stage.cntel.elcdev.net/product/1528/4712/clean/oil-control-face-wash,http://m.e.labseries.cn.cn.stage.cntel.elcdev.net/product/1528/4601/clean/multi-action-face-wash,https://m.e.labseries.cn.cn.stage.cntel.elcdev.net/product/14984/23870/tone/max-ls-skin-recharging-water-lotion,https://m.e.labseries.cn.cn.stage.cntel.elcdev.net/product/14984/42778/tone/water-lotion/water-lotion-upgrade,https://m.e.labseries.cn.cn.stage.cntel.elcdev.net/product/14983/19621/spf/bb-tinted-moisturizer-spf35-pa,https://m.e.labseries.cn.cn.stage.cntel.elcdev.net/product/1530/44638/moisturize/pro-ls-all-in-one-hydrating-gel,https://m.e.labseries.cn.cn.stage.cntel.elcdev.net/product/1530/40929/moisturize/age-rescue-face-lotion--limited-edition-bonus-size,https://m.e.labseries.cn.cn.stage.cntel.elcdev.net/product/1530/44440/moisturize/maxellence-the-dual-concentrate,https://m.e.labseries.cn.cn.stage.cntel.elcdev.net/product/14985/38350/repair/max-ls-power-v-lifting-serum,https://m.e.labseries.cn.cn.stage.cntel.elcdev.net/product/1530/44439/moisturize/maxellence-the-singular-cream,https://m.e.labseries.cn.cn.stage.cntel.elcdev.net/esearch?form_id=perlgem_search_form&search=face,,,cambridge,https://m.e.labseries.cn.cn.stage.cntel.elcdev.net/max-ls,,,,,1,,
TestScripts-PC,TC03_GU_cartpagechecks_diffBilling_checkout,1,1,https://e.labseries.cn.cn.stage.cntel.elcdev.net,hara011@163.com,123456,Tester,test,古舘,百璽,122 Liuhua Rd,572000,Guangdong,Guangzhou,32165498796,4111110000000000,312,pdtest,,,,sjarre_1360284165_per@gmail.com,elconline,,https://e.labseries.cn.cn.stage.cntel.elcdev.net/checkout/viewcart.tmpl,,,https://e.labseries.cn.cn.stage.cntel.elcdev.net/account/index.tmpl,https://e.labseries.cn.cn.stage.cntel.elcdev.net/product/1528/4712/clean/oil-control-face-wash,https://e.labseries.cn.cn.stage.cntel.elcdev.net/product/1528/4601/clean/multi-action-face-wash,https://e.labseries.cn.cn.stage.cntel.elcdev.net/product/14984/23870/tone/max-ls-skin-recharging-water-lotion,https://e.labseries.cn.cn.stage.cntel.elcdev.net/product/14984/42778/tone/water-lotion/water-lotion-upgrade,https://e.labseries.cn.cn.stage.cntel.elcdev.net/product/14983/19621/spf/bb-tinted-moisturizer-spf35-pa,https://e.labseries.cn.cn.stage.cntel.elcdev.net/product/1530/44638/moisturize/pro-ls-all-in-one-hydrating-gel,https://e.labseries.cn.cn.stage.cntel.elcdev.net/product/1530/40929/moisturize/age-rescue-face-lotion--limited-edition-bonus-size,https://e.labseries.cn.cn.stage.cntel.elcdev.net/product/1530/44440/moisturize/maxellence-the-dual-concentrate,https://e.labseries.cn.cn.stage.cntel.elcdev.net/product/14985/38350/repair/max-ls-power-v-lifting-serum,https://e.labseries.cn.cn.stage.cntel.elcdev.net/product/1530/44439/moisturize/maxellence-the-singular-cream,https://e.labseries.cn.cn.stage.cntel.elcdev.net/esearch?form_id=perlgem_search_form&search=face,,,,https://e.labseries.cn.cn.stage.cntel.elcdev.net/max-ls,,,,,1,,
TestScripts-Mobile,TC03_GU_cartpagechecks_diffBilling_checkout,1,1,http://m.e.labseries.cn.cn.stage.cntel.elcdev.net,hara011@163.com,123456,Tester,test,古舘,百璽,122 Liuhua Rd,572000,Guangdong,Guangzhou,32165498796,4111110000000000,312,pdtest,,,,sjarre_1360284165_per@gmail.com,elconline,,https://m.e.labseries.cn.cn.stage.cntel.elcdev.net/checkout/viewcart.tmpl,611730,Ningxia,https://m.elabseries.cn.cn.stage.cntel.elcdev.net/account/index.tmpl,http://m.e.labseries.cn.cn.stage.cntel.elcdev.net/product/1528/4712/clean/oil-control-face-wash,http://m.e.labseries.cn.cn.stage.cntel.elcdev.net/product/1528/4601/clean/multi-action-face-wash,https://m.e.labseries.cn.cn.stage.cntel.elcdev.net/product/14984/23870/tone/max-ls-skin-recharging-water-lotion,https://m.e.labseries.cn.cn.stage.cntel.elcdev.net/product/14984/42778/tone/water-lotion/water-lotion-upgrade,https://m.e.labseries.cn.cn.stage.cntel.elcdev.net/product/14983/19621/spf/bb-tinted-moisturizer-spf35-pa,https://m.e.labseries.cn.cn.stage.cntel.elcdev.net/product/1530/44638/moisturize/pro-ls-all-in-one-hydrating-gel,https://m.e.labseries.cn.cn.stage.cntel.elcdev.net/product/1530/40929/moisturize/age-rescue-face-lotion--limited-edition-bonus-size,https://m.e.labseries.cn.cn.stage.cntel.elcdev.net/product/1530/44440/moisturize/maxellence-the-dual-concentrate,https://m.e.labseries.cn.cn.stage.cntel.elcdev.net/product/14985/38350/repair/max-ls-power-v-lifting-serum,https://m.e.labseries.cn.cn.stage.cntel.elcdev.net/product/1530/44439/moisturize/maxellence-the-singular-cream,https://m.e.labseries.cn.cn.stage.cntel.elcdev.net/esearch?form_id=perlgem_search_form&search=face,,,,https://m.e.labseries.cn.cn.stage.cntel.elcdev.net/max-ls,,,,,1,,
TestScripts-PC,TC04_RU_onfile_fav_updatealldetails_checkout,1,1,https://e.labseries.cn.cn.stage.cntel.elcdev.net,hara011@163.com,123456,Tester,test,古舘,百璽,122 Liuhua Rd,572000,Guangdong,Guangzhou,32165498796,4111110000000000,312,pdtest,,,,sjarre_1360284165_per@gmail.com,elconline,,https://e.labseries.cn.cn.stage.cntel.elcdev.net/checkout/viewcart.tmpl,611730,Ningxia,https://e.labseries.cn.cn.stage.cntel.elcdev.net/account/index.tmpl,https://e.labseries.cn.cn.stage.cntel.elcdev.net/product/1528/4712/clean/oil-control-face-wash,https://e.labseries.cn.cn.stage.cntel.elcdev.net/product/1528/4601/clean/multi-action-face-wash,https://e.labseries.cn.cn.stage.cntel.elcdev.net/product/14984/23870/tone/max-ls-skin-recharging-water-lotion,https://e.labseries.cn.cn.stage.cntel.elcdev.net/product/14984/42778/tone/water-lotion/water-lotion-upgrade,https://e.labseries.cn.cn.stage.cntel.elcdev.net/product/14983/19621/spf/bb-tinted-moisturizer-spf35-pa,https://e.labseries.cn.cn.stage.cntel.elcdev.net/product/1530/44638/moisturize/pro-ls-all-in-one-hydrating-gel,https://e.labseries.cn.cn.stage.cntel.elcdev.net/product/1530/40929/moisturize/age-rescue-face-lotion--limited-edition-bonus-size,https://e.labseries.cn.cn.stage.cntel.elcdev.net/product/1530/44440/moisturize/maxellence-the-dual-concentrate,https://e.labseries.cn.cn.stage.cntel.elcdev.net/product/14985/38350/repair/max-ls-power-v-lifting-serum,https://e.labseries.cn.cn.stage.cntel.elcdev.net/product/1530/44439/moisturize/maxellence-the-singular-cream,https://e.labseries.cn.cn.stage.cntel.elcdev.net/esearch?form_id=perlgem_search_form&search=face,,,,https://e.labseries.cn.cn.stage.cntel.elcdev.net/max-ls,,,,,1,,
TestScripts-Mobile,TC04_RU_onfile_fav_updatealldetails_checkout,1,1,http://m.e.labseries.cn.cn.stage.cntel.elcdev.net,hara011@163.com,123456,Tester,test,古舘,百璽,122 Liuhua Rd,572000,Guangdong,Guangzhou,32165498796,4111110000000000,312,pdtest,,,,sjarre_1360284165_per@gmail.com,elconline,,https://m.e.labseries.cn.cn.stage.cntel.elcdev.net/checkout/viewcart.tmpl,,,https://m.elabseries.cn.cn.stage.cntel.elcdev.net/account/index.tmpl,http://m.e.labseries.cn.cn.stage.cntel.elcdev.net/product/1528/4712/clean/oil-control-face-wash,http://m.e.labseries.cn.cn.stage.cntel.elcdev.net/product/1528/4601/clean/multi-action-face-wash,https://m.e.labseries.cn.cn.stage.cntel.elcdev.net/product/14984/23870/tone/max-ls-skin-recharging-water-lotion,https://m.e.labseries.cn.cn.stage.cntel.elcdev.net/product/14984/42778/tone/water-lotion/water-lotion-upgrade,https://m.e.labseries.cn.cn.stage.cntel.elcdev.net/product/14983/19621/spf/bb-tinted-moisturizer-spf35-pa,https://m.e.labseries.cn.cn.stage.cntel.elcdev.net/product/1530/44638/moisturize/pro-ls-all-in-one-hydrating-gel,https://m.e.labseries.cn.cn.stage.cntel.elcdev.net/product/1530/40929/moisturize/age-rescue-face-lotion--limited-edition-bonus-size,https://m.e.labseries.cn.cn.stage.cntel.elcdev.net/product/1530/44440/moisturize/maxellence-the-dual-concentrate,https://m.e.labseries.cn.cn.stage.cntel.elcdev.net/product/14985/38350/repair/max-ls-power-v-lifting-serum,https://m.e.labseries.cn.cn.stage.cntel.elcdev.net/product/1530/44439/moisturize/maxellence-the-singular-cream,https://m.e.labseries.cn.cn.stage.cntel.elcdev.net/esearch?form_id=perlgem_search_form&search=face,,,cambridge,https://m.e.labseries.cn.cn.stage.cntel.elcdev.net/max-ls,,,,,1,,
TestScripts-PC,TC05_PU_nodetails_profilepagechecks_adddetails,1,1,https://e.labseries.cn.cn.stage.cntel.elcdev.net,hara011@163.com,123456,Tester,test,古舘,百璽,122 Liuhua Rd,572000,Guangdong,Guangzhou,32165498796,4111110000000000,312,pdtest,,,,sjarre_1360284165_per@gmail.com,elconline,,https://e.labseries.cn.cn.stage.cntel.elcdev.net/checkout/viewcart.tmpl,,,https://e.labseries.cn.cn.stage.cntel.elcdev.net/account/index.tmpl,https://e.labseries.cn.cn.stage.cntel.elcdev.net/product/1528/4712/clean/oil-control-face-wash,https://e.labseries.cn.cn.stage.cntel.elcdev.net/product/1528/4601/clean/multi-action-face-wash,https://e.labseries.cn.cn.stage.cntel.elcdev.net/product/14984/23870/tone/max-ls-skin-recharging-water-lotion,https://e.labseries.cn.cn.stage.cntel.elcdev.net/product/14984/42778/tone/water-lotion/water-lotion-upgrade,https://e.labseries.cn.cn.stage.cntel.elcdev.net/product/14983/19621/spf/bb-tinted-moisturizer-spf35-pa,https://e.labseries.cn.cn.stage.cntel.elcdev.net/product/1530/44638/moisturize/pro-ls-all-in-one-hydrating-gel,https://e.labseries.cn.cn.stage.cntel.elcdev.net/product/1530/40929/moisturize/age-rescue-face-lotion--limited-edition-bonus-size,https://e.labseries.cn.cn.stage.cntel.elcdev.net/product/1530/44440/moisturize/maxellence-the-dual-concentrate,https://e.labseries.cn.cn.stage.cntel.elcdev.net/product/14985/38350/repair/max-ls-power-v-lifting-serum,https://e.labseries.cn.cn.stage.cntel.elcdev.net/product/1530/44439/moisturize/maxellence-the-singular-cream,https://e.labseries.cn.cn.stage.cntel.elcdev.net/esearch?form_id=perlgem_search_form&search=face,,,,https://e.labseries.cn.cn.stage.cntel.elcdev.net/max-ls,,,,,1,,
TestScripts-Mobile,TC05_PU_nodetails_profilepagechecks_adddetails,1,1,http://m.e.labseries.cn.cn.stage.cntel.elcdev.net,hara011@163.com,123456,Tester,test,古舘,百璽,122 Liuhua Rd,572000,Guangdong,Guangzhou,32165498796,4111110000000000,312,pdtest,,,,sjarre_1360284165_per@gmail.com,elconline,,https://m.e.labseries.cn.cn.stage.cntel.elcdev.net/checkout/viewcart.tmpl,,,https://m.elabseries.cn.cn.stage.cntel.elcdev.net/account/index.tmpl,http://m.e.labseries.cn.cn.stage.cntel.elcdev.net/product/1528/4712/clean/oil-control-face-wash,http://m.e.labseries.cn.cn.stage.cntel.elcdev.net/product/1528/4601/clean/multi-action-face-wash,https://m.e.labseries.cn.cn.stage.cntel.elcdev.net/product/14984/23870/tone/max-ls-skin-recharging-water-lotion,https://m.e.labseries.cn.cn.stage.cntel.elcdev.net/product/14984/42778/tone/water-lotion/water-lotion-upgrade,https://m.e.labseries.cn.cn.stage.cntel.elcdev.net/product/14983/19621/spf/bb-tinted-moisturizer-spf35-pa,https://m.e.labseries.cn.cn.stage.cntel.elcdev.net/product/1530/44638/moisturize/pro-ls-all-in-one-hydrating-gel,https://m.e.labseries.cn.cn.stage.cntel.elcdev.net/product/1530/40929/moisturize/age-rescue-face-lotion--limited-edition-bonus-size,https://m.e.labseries.cn.cn.stage.cntel.elcdev.net/product/1530/44440/moisturize/maxellence-the-dual-concentrate,https://m.e.labseries.cn.cn.stage.cntel.elcdev.net/product/14985/38350/repair/max-ls-power-v-lifting-serum,https://m.e.labseries.cn.cn.stage.cntel.elcdev.net/product/1530/44439/moisturize/maxellence-the-singular-cream,https://m.e.labseries.cn.cn.stage.cntel.elcdev.net/esearch?form_id=perlgem_search_form&search=face,,,cambridge,https://m.e.labseries.cn.cn.stage.cntel.elcdev.net/max-ls,,,,,1,,
TestScripts-PC,TC06_Store_Locator,1,1,https://e.labseries.cn.cn.stage.cntel.elcdev.net,hara011@163.com,123456,Tester,test,古舘,百璽,122 Liuhua Rd,572000,Guangdong,Guangzhou,32165498796,4111110000000000,312,pdtest,,,,,,,https://e.labseries.cn.cn.stage.cntel.elcdev.net/checkout/viewcart.tmpl,,,https://e.labseries.cn.cn.stage.cntel.elcdev.net/account/index.tmpl,https://e.labseries.cn.cn.stage.cntel.elcdev.net/product/1528/4712/clean/oil-control-face-wash,https://e.labseries.cn.cn.stage.cntel.elcdev.net/product/1528/4601/clean/multi-action-face-wash,https://e.labseries.cn.cn.stage.cntel.elcdev.net/product/14984/23870/tone/max-ls-skin-recharging-water-lotion,https://e.labseries.cn.cn.stage.cntel.elcdev.net/product/14984/42778/tone/water-lotion/water-lotion-upgrade,https://e.labseries.cn.cn.stage.cntel.elcdev.net/product/14983/19621/spf/bb-tinted-moisturizer-spf35-pa,https://e.labseries.cn.cn.stage.cntel.elcdev.net/product/1530/44638/moisturize/pro-ls-all-in-one-hydrating-gel,https://e.labseries.cn.cn.stage.cntel.elcdev.net/product/1530/40929/moisturize/age-rescue-face-lotion--limited-edition-bonus-size,https://e.labseries.cn.cn.stage.cntel.elcdev.net/product/1530/44440/moisturize/maxellence-the-dual-concentrate,https://e.labseries.cn.cn.stage.cntel.elcdev.net/product/14985/38350/repair/max-ls-power-v-lifting-serum,https://e.labseries.cn.cn.stage.cntel.elcdev.net/product/1530/44439/moisturize/maxellence-the-singular-cream,https://e.labseries.cn.cn.stage.cntel.elcdev.net/esearch?form_id=perlgem_search_form&search=face,,,cambridge,https://e.labseries.cn.cn.stage.cntel.elcdev.net/max-ls,,,,,1,,
TestScripts-Mobile,TC06_Store_Locator,1,1,http://m.e.labseries.cn.cn.stage.cntel.elcdev.net,hara011@163.com,123456,Tester,test,古舘,百璽,122 Liuhua Rd,572000,Guangdong,Guangzhou,32165498796,4111110000000000,312,pdtest,,,,sjarre_1360284165_per@gmail.com,elconline,,https://m.e.labseries.cn.cn.stage.cntel.elcdev.net/checkout/viewcart.tmpl,611730,Ningxia,https://m.elabseries.cn.cn.stage.cntel.elcdev.net/account/index.tmpl,http://m.e.labseries.cn.cn.stage.cntel.elcdev.net/product/1528/4712/clean/oil-control-face-wash,http://m.e.labseries.cn.cn.stage.cntel.elcdev.net/product/1528/4601/clean/multi-action-face-wash,https://m.e.labseries.cn.cn.stage.cntel.elcdev.net/product/14984/23870/tone/max-ls-skin-recharging-water-lotion,https://m.e.labseries.cn.cn.stage.cntel.elcdev.net/product/14984/42778/tone/water-lotion/water-lotion-upgrade,https://m.e.labseries.cn.cn.stage.cntel.elcdev.net/product/14983/19621/spf/bb-tinted-moisturizer-spf35-pa,https://m.e.labseries.cn.cn.stage.cntel.elcdev.net/product/1530/44638/moisturize/pro-ls-all-in-one-hydrating-gel,https://m.e.labseries.cn.cn.stage.cntel.elcdev.net/product/1530/40929/moisturize/age-rescue-face-lotion--limited-edition-bonus-size,https://m.e.labseries.cn.cn.stage.cntel.elcdev.net/product/1530/44440/moisturize/maxellence-the-dual-concentrate,https://m.e.labseries.cn.cn.stage.cntel.elcdev.net/product/14985/38350/repair/max-ls-power-v-lifting-serum,https://m.e.labseries.cn.cn.stage.cntel.elcdev.net/product/1530/44439/moisturize/maxellence-the-singular-cream,https://m.e.labseries.cn.cn.stage.cntel.elcdev.net/esearch?form_id=perlgem_search_form&search=face,,,cambridge,https://m.e.labseries.cn.cn.stage.cntel.elcdev.net/max-ls,,,,,1,,
TestScripts-PC,TC07_NU_cartpagechecks_COD,1,1,https://e.labseries.cn.cn.stage.cntel.elcdev.net,hara011@163.com,123456,Tester,test,古舘,百璽,122 Liuhua Rd,572000,Guangdong,Guangzhou,32165498796,4111110000000000,312,pdtest,,,,sjarre_1360284165_per@gmail.com,elconline,,https://e.labseries.cn.cn.stage.cntel.elcdev.net/checkout/viewcart.tmpl,611730,Ningxia,https://e.labseries.cn.cn.stage.cntel.elcdev.net/account/index.tmpl,https://e.labseries.cn.cn.stage.cntel.elcdev.net/product/1528/4712/clean/oil-control-face-wash,https://e.labseries.cn.cn.stage.cntel.elcdev.net/product/1528/4601/clean/multi-action-face-wash,https://e.labseries.cn.cn.stage.cntel.elcdev.net/product/14984/23870/tone/max-ls-skin-recharging-water-lotion,https://e.labseries.cn.cn.stage.cntel.elcdev.net/product/14984/42778/tone/water-lotion/water-lotion-upgrade,https://e.labseries.cn.cn.stage.cntel.elcdev.net/product/14983/19621/spf/bb-tinted-moisturizer-spf35-pa,https://e.labseries.cn.cn.stage.cntel.elcdev.net/product/1530/44638/moisturize/pro-ls-all-in-one-hydrating-gel,https://e.labseries.cn.cn.stage.cntel.elcdev.net/product/1530/40929/moisturize/age-rescue-face-lotion--limited-edition-bonus-size,https://e.labseries.cn.cn.stage.cntel.elcdev.net/product/1530/44440/moisturize/maxellence-the-dual-concentrate,https://e.labseries.cn.cn.stage.cntel.elcdev.net/product/14985/38350/repair/max-ls-power-v-lifting-serum,https://e.labseries.cn.cn.stage.cntel.elcdev.net/product/1530/44439/moisturize/maxellence-the-singular-cream,https://e.labseries.cn.cn.stage.cntel.elcdev.net/esearch?form_id=perlgem_search_form&search=face,,,,https://e.labseries.cn.cn.stage.cntel.elcdev.net/max-ls,,,,,1,,
TestScripts-Mobile,TC07_NU_cartpagechecks_COD,1,1,http://m.e.labseries.cn.cn.stage.cntel.elcdev.net,hara011@163.com,123456,Tester,test,古舘,百璽,122 Liuhua Rd,572000,Guangdong,Guangzhou,32165498796,4111110000000000,312,pdtest,,,,sjarre_1360284165_per@gmail.com,elconline,,https://m.e.labseries.cn.cn.stage.cntel.elcdev.net/checkout/viewcart.tmpl,611730,Ningxia,https://m.elabseries.cn.cn.stage.cntel.elcdev.net/account/index.tmpl,http://m.e.labseries.cn.cn.stage.cntel.elcdev.net/product/1528/4712/clean/oil-control-face-wash,http://m.e.labseries.cn.cn.stage.cntel.elcdev.net/product/1528/4601/clean/multi-action-face-wash,https://m.e.labseries.cn.cn.stage.cntel.elcdev.net/product/14984/23870/tone/max-ls-skin-recharging-water-lotion,https://m.e.labseries.cn.cn.stage.cntel.elcdev.net/product/14984/42778/tone/water-lotion/water-lotion-upgrade,https://m.e.labseries.cn.cn.stage.cntel.elcdev.net/product/14983/19621/spf/bb-tinted-moisturizer-spf35-pa,https://m.e.labseries.cn.cn.stage.cntel.elcdev.net/product/1530/44638/moisturize/pro-ls-all-in-one-hydrating-gel,https://m.e.labseries.cn.cn.stage.cntel.elcdev.net/product/1530/40929/moisturize/age-rescue-face-lotion--limited-edition-bonus-size,https://m.e.labseries.cn.cn.stage.cntel.elcdev.net/product/1530/44440/moisturize/maxellence-the-dual-concentrate,https://m.e.labseries.cn.cn.stage.cntel.elcdev.net/product/14985/38350/repair/max-ls-power-v-lifting-serum,https://m.e.labseries.cn.cn.stage.cntel.elcdev.net/product/1530/44439/moisturize/maxellence-the-singular-cream,https://m.e.labseries.cn.cn.stage.cntel.elcdev.net/esearch?form_id=perlgem_search_form&search=face,,,cambridge,https://m.e.labseries.cn.cn.stage.cntel.elcdev.net/max-ls,,,,,1,,
TestScripts-PC,TC08_NU_OfferCode_checkout,1,1,https://e.labseries.cn.cn.stage.cntel.elcdev.net,hara011@163.com,123456,Tester,test,古舘,百璽,122 Liuhua Rd,572000,Guangdong,Guangzhou,32165498796,4111110000000000,312,pdtest,,,,sjarre_1360284165_per@gmail.com,elconline,,https://e.labseries.cn.cn.stage.cntel.elcdev.net/checkout/viewcart.tmpl,611730,Ningxia,https://e.labseries.cn.cn.stage.cntel.elcdev.net/account/index.tmpl,https://e.labseries.cn.cn.stage.cntel.elcdev.net/product/1528/4712/clean/oil-control-face-wash,https://e.labseries.cn.cn.stage.cntel.elcdev.net/product/1528/4601/clean/multi-action-face-wash,https://e.labseries.cn.cn.stage.cntel.elcdev.net/product/14984/23870/tone/max-ls-skin-recharging-water-lotion,https://e.labseries.cn.cn.stage.cntel.elcdev.net/product/14984/42778/tone/water-lotion/water-lotion-upgrade,https://e.labseries.cn.cn.stage.cntel.elcdev.net/product/14983/19621/spf/bb-tinted-moisturizer-spf35-pa,https://e.labseries.cn.cn.stage.cntel.elcdev.net/product/1530/44638/moisturize/pro-ls-all-in-one-hydrating-gel,https://e.labseries.cn.cn.stage.cntel.elcdev.net/product/1530/40929/moisturize/age-rescue-face-lotion--limited-edition-bonus-size,https://e.labseries.cn.cn.stage.cntel.elcdev.net/product/1530/44440/moisturize/maxellence-the-dual-concentrate,https://e.labseries.cn.cn.stage.cntel.elcdev.net/product/14985/38350/repair/max-ls-power-v-lifting-serum,https://e.labseries.cn.cn.stage.cntel.elcdev.net/product/1530/44439/moisturize/maxellence-the-singular-cream,https://e.labseries.cn.cn.stage.cntel.elcdev.net/esearch?form_id=perlgem_search_form&search=face,,,,https://e.labseries.cn.cn.stage.cntel.elcdev.net/max-ls,,,,,1,,
TestScripts-Mobile,TC08_NU_OfferCode_checkout,1,1,http://m.e.labseries.cn.cn.stage.cntel.elcdev.net,hara011@163.com,123456,Tester,test,古舘,百璽,122 Liuhua Rd,572000,Guangdong,Guangzhou,32165498796,4111110000000000,312,pdtest,,,,sjarre_1360284165_per@gmail.com,elconline,,https://m.e.labseries.cn.cn.stage.cntel.elcdev.net/checkout/viewcart.tmpl,,,https://m.elabseries.cn.cn.stage.cntel.elcdev.net/account/index.tmpl,http://m.e.labseries.cn.cn.stage.cntel.elcdev.net/product/1528/4712/clean/oil-control-face-wash,http://m.e.labseries.cn.cn.stage.cntel.elcdev.net/product/1528/4601/clean/multi-action-face-wash,https://m.e.labseries.cn.cn.stage.cntel.elcdev.net/product/14984/23870/tone/max-ls-skin-recharging-water-lotion,https://m.e.labseries.cn.cn.stage.cntel.elcdev.net/product/14984/42778/tone/water-lotion/water-lotion-upgrade,https://m.e.labseries.cn.cn.stage.cntel.elcdev.net/product/14983/19621/spf/bb-tinted-moisturizer-spf35-pa,https://m.e.labseries.cn.cn.stage.cntel.elcdev.net/product/1530/44638/moisturize/pro-ls-all-in-one-hydrating-gel,https://m.e.labseries.cn.cn.stage.cntel.elcdev.net/product/1530/40929/moisturize/age-rescue-face-lotion--limited-edition-bonus-size,https://m.e.labseries.cn.cn.stage.cntel.elcdev.net/product/1530/44440/moisturize/maxellence-the-dual-concentrate,https://m.e.labseries.cn.cn.stage.cntel.elcdev.net/product/14985/38350/repair/max-ls-power-v-lifting-serum,https://m.e.labseries.cn.cn.stage.cntel.elcdev.net/product/1530/44439/moisturize/maxellence-the-singular-cream,https://m.e.labseries.cn.cn.stage.cntel.elcdev.net/esearch?form_id=perlgem_search_form&search=face,,,cambridge,https://m.e.labseries.cn.cn.stage.cntel.elcdev.net/max-ls,,,,,1,,
TestScripts-PC,TC09_NU_Addfavorites_SPP_MPP_Wishlist,1,1,https://e.labseries.cn.cn.stage.cntel.elcdev.net,hara011@163.com,123456,Tester,test,古舘,百璽,122 Liuhua Rd,572000,Guangdong,Guangzhou,32165498796,4111110000000000,312,pdtest,,,,sjarre_1360284165_per@gmail.com,elconline,,https://e.labseries.cn.cn.stage.cntel.elcdev.net/checkout/viewcart.tmpl,,,https://e.labseries.cn.cn.stage.cntel.elcdev.net/account/index.tmpl,https://e.labseries.cn.cn.stage.cntel.elcdev.net/product/1528/4712/clean/oil-control-face-wash,https://e.labseries.cn.cn.stage.cntel.elcdev.net/product/1528/4601/clean/multi-action-face-wash,https://e.labseries.cn.cn.stage.cntel.elcdev.net/product/14984/23870/tone/max-ls-skin-recharging-water-lotion,https://e.labseries.cn.cn.stage.cntel.elcdev.net/product/14984/42778/tone/water-lotion/water-lotion-upgrade,https://e.labseries.cn.cn.stage.cntel.elcdev.net/product/14983/19621/spf/bb-tinted-moisturizer-spf35-pa,https://e.labseries.cn.cn.stage.cntel.elcdev.net/product/1530/44638/moisturize/pro-ls-all-in-one-hydrating-gel,https://e.labseries.cn.cn.stage.cntel.elcdev.net/product/1530/40929/moisturize/age-rescue-face-lotion--limited-edition-bonus-size,https://e.labseries.cn.cn.stage.cntel.elcdev.net/product/1530/44440/moisturize/maxellence-the-dual-concentrate,https://e.labseries.cn.cn.stage.cntel.elcdev.net/product/14985/38350/repair/max-ls-power-v-lifting-serum,https://e.labseries.cn.cn.stage.cntel.elcdev.net/product/1530/44439/moisturize/maxellence-the-singular-cream,https://e.labseries.cn.cn.stage.cntel.elcdev.net/esearch?form_id=perlgem_search_form&search=face,elcqa2@gmail.com,123456,,https://e.labseries.cn.cn.stage.cntel.elcdev.net/max-ls,,,,,1,,
TestScripts-Mobile,TC09_NU_Addfavorites_SPP_MPP_Wishlist,1,1,http://m.e.labseries.cn.cn.stage.cntel.elcdev.net,hara011@163.com,123456,Tester,test,古舘,百璽,122 Liuhua Rd,572000,Guangdong,Guangzhou,32165498796,4111110000000000,312,pdtest,,,,sjarre_1360284165_per@gmail.com,elconline,,https://m.e.labseries.cn.cn.stage.cntel.elcdev.net/checkout/viewcart.tmpl,,,https://m.elabseries.cn.cn.stage.cntel.elcdev.net/account/index.tmpl,http://m.e.labseries.cn.cn.stage.cntel.elcdev.net/product/1528/4712/clean/oil-control-face-wash,http://m.e.labseries.cn.cn.stage.cntel.elcdev.net/product/1528/4601/clean/multi-action-face-wash,https://m.e.labseries.cn.cn.stage.cntel.elcdev.net/product/14984/23870/tone/max-ls-skin-recharging-water-lotion,https://m.e.labseries.cn.cn.stage.cntel.elcdev.net/product/14984/42778/tone/water-lotion/water-lotion-upgrade,https://m.e.labseries.cn.cn.stage.cntel.elcdev.net/product/14983/19621/spf/bb-tinted-moisturizer-spf35-pa,https://m.e.labseries.cn.cn.stage.cntel.elcdev.net/product/1530/44638/moisturize/pro-ls-all-in-one-hydrating-gel,https://m.e.labseries.cn.cn.stage.cntel.elcdev.net/product/1530/40929/moisturize/age-rescue-face-lotion--limited-edition-bonus-size,https://m.e.labseries.cn.cn.stage.cntel.elcdev.net/product/1530/44440/moisturize/maxellence-the-dual-concentrate,https://m.e.labseries.cn.cn.stage.cntel.elcdev.net/product/14985/38350/repair/max-ls-power-v-lifting-serum,https://m.e.labseries.cn.cn.stage.cntel.elcdev.net/product/1530/44439/moisturize/maxellence-the-singular-cream,https://m.e.labseries.cn.cn.stage.cntel.elcdev.net/esearch?form_id=perlgem_search_form&search=face,elcqa2@gmail.com,123456,cambridge,https://m.e.labseries.cn.cn.stage.cntel.elcdev.net/max-ls,,,,,1,,
TestScripts-PC,TC12_RU_LU_PU_onfile_pastpurchase_checkout,1,1,https://e.labseries.cn.cn.stage.cntel.elcdev.net,hara011@163.com,123456,Tester,test,古舘,百璽,122 Liuhua Rd,572000,Guangdong,Guangzhou,32165498796,4111110000000000,312,pdtest,,,,sjarre_1360284165_per@gmail.com,elconline,,https://e.labseries.cn.cn.stage.cntel.elcdev.net/checkout/viewcart.tmpl,,,https://e.labseries.cn.cn.stage.cntel.elcdev.net/account/index.tmpl,https://e.labseries.cn.cn.stage.cntel.elcdev.net/product/1528/4712/clean/oil-control-face-wash,https://e.labseries.cn.cn.stage.cntel.elcdev.net/product/1528/4601/clean/multi-action-face-wash,https://e.labseries.cn.cn.stage.cntel.elcdev.net/product/14984/23870/tone/max-ls-skin-recharging-water-lotion,https://e.labseries.cn.cn.stage.cntel.elcdev.net/product/14984/42778/tone/water-lotion/water-lotion-upgrade,https://e.labseries.cn.cn.stage.cntel.elcdev.net/product/14983/19621/spf/bb-tinted-moisturizer-spf35-pa,https://e.labseries.cn.cn.stage.cntel.elcdev.net/product/1530/44638/moisturize/pro-ls-all-in-one-hydrating-gel,https://e.labseries.cn.cn.stage.cntel.elcdev.net/product/1530/40929/moisturize/age-rescue-face-lotion--limited-edition-bonus-size,https://e.labseries.cn.cn.stage.cntel.elcdev.net/product/1530/44440/moisturize/maxellence-the-dual-concentrate,https://e.labseries.cn.cn.stage.cntel.elcdev.net/product/14985/38350/repair/max-ls-power-v-lifting-serum,https://e.labseries.cn.cn.stage.cntel.elcdev.net/product/1530/44439/moisturize/maxellence-the-singular-cream,https://e.labseries.cn.cn.stage.cntel.elcdev.net/esearch?form_id=perlgem_search_form&search=face,,123456,,https://e.labseries.cn.cn.stage.cntel.elcdev.net/max-ls,,,,,1,,
TestScripts-Mobile,TC12_RU_LU_PU_onfile_pastpurchase_checkout,1,1,http://m.e.labseries.cn.cn.stage.cntel.elcdev.net,hara011@163.com,123456,Tester,test,古舘,百璽,122 Liuhua Rd,572000,Guangdong,Guangzhou,32165498796,4111110000000000,312,pdtest,,,,sjarre_1360284165_per@gmail.com,elconline,,https://m.e.labseries.cn.cn.stage.cntel.elcdev.net/checkout/viewcart.tmpl,,,https://m.elabseries.cn.cn.stage.cntel.elcdev.net/account/index.tmpl,http://m.e.labseries.cn.cn.stage.cntel.elcdev.net/product/1528/4712/clean/oil-control-face-wash,http://m.e.labseries.cn.cn.stage.cntel.elcdev.net/product/1528/4601/clean/multi-action-face-wash,https://m.e.labseries.cn.cn.stage.cntel.elcdev.net/product/14984/23870/tone/max-ls-skin-recharging-water-lotion,https://m.e.labseries.cn.cn.stage.cntel.elcdev.net/product/14984/42778/tone/water-lotion/water-lotion-upgrade,https://m.e.labseries.cn.cn.stage.cntel.elcdev.net/product/14983/19621/spf/bb-tinted-moisturizer-spf35-pa,https://m.e.labseries.cn.cn.stage.cntel.elcdev.net/product/1530/44638/moisturize/pro-ls-all-in-one-hydrating-gel,https://m.e.labseries.cn.cn.stage.cntel.elcdev.net/product/1530/40929/moisturize/age-rescue-face-lotion--limited-edition-bonus-size,https://m.e.labseries.cn.cn.stage.cntel.elcdev.net/product/1530/44440/moisturize/maxellence-the-dual-concentrate,https://m.e.labseries.cn.cn.stage.cntel.elcdev.net/product/14985/38350/repair/max-ls-power-v-lifting-serum,https://m.e.labseries.cn.cn.stage.cntel.elcdev.net/product/1530/44439/moisturize/maxellence-the-singular-cream,https://m.e.labseries.cn.cn.stage.cntel.elcdev.net/esearch?form_id=perlgem_search_form&search=face,,123456,cambridge,https://m.e.labseries.cn.cn.stage.cntel.elcdev.net/max-ls,,,,,1,,
TestScripts-PC,TC13_RU_onfile_checkout_EmailSignUP,1,1,https://e.labseries.cn.cn.stage.cntel.elcdev.net,hara011@163.com,123456,Tester,test,古舘,百璽,122 Liuhua Rd,572000,Guangdong,Guangzhou,32165498796,4111110000000000,312,pdtest,,,,sjarre_1360284165_per@gmail.com,elconline,,https://e.labseries.cn.cn.stage.cntel.elcdev.net/checkout/viewcart.tmpl,,,https://e.labseries.cn.cn.stage.cntel.elcdev.net/account/index.tmpl,https://e.labseries.cn.cn.stage.cntel.elcdev.net/product/1528/4712/clean/oil-control-face-wash,https://e.labseries.cn.cn.stage.cntel.elcdev.net/product/1528/4601/clean/multi-action-face-wash,https://e.labseries.cn.cn.stage.cntel.elcdev.net/product/14984/23870/tone/max-ls-skin-recharging-water-lotion,https://e.labseries.cn.cn.stage.cntel.elcdev.net/product/14984/42778/tone/water-lotion/water-lotion-upgrade,https://e.labseries.cn.cn.stage.cntel.elcdev.net/product/14983/19621/spf/bb-tinted-moisturizer-spf35-pa,https://e.labseries.cn.cn.stage.cntel.elcdev.net/product/1530/44638/moisturize/pro-ls-all-in-one-hydrating-gel,https://e.labseries.cn.cn.stage.cntel.elcdev.net/product/1530/40929/moisturize/age-rescue-face-lotion--limited-edition-bonus-size,https://e.labseries.cn.cn.stage.cntel.elcdev.net/product/1530/44440/moisturize/maxellence-the-dual-concentrate,https://e.labseries.cn.cn.stage.cntel.elcdev.net/product/14985/38350/repair/max-ls-power-v-lifting-serum,https://e.labseries.cn.cn.stage.cntel.elcdev.net/product/1530/44439/moisturize/maxellence-the-singular-cream,https://e.labseries.cn.cn.stage.cntel.elcdev.net/esearch?form_id=perlgem_search_form&search=face,,123456,cambridge,https://e.labseries.cn.cn.stage.cntel.elcdev.net/max-ls,,,,,1,,
TestScripts-Mobile,TC13_RU_onfile_setsAR_checkout,1,1,http://m.e.labseries.cn.cn.stage.cntel.elcdev.net,hara011@163.com,123456,Tester,test,古舘,百璽,122 Liuhua Rd,572000,Guangdong,Guangzhou,32165498796,4111110000000000,312,pdtest,,,,sjarre_1360284165_per@gmail.com,elconline,,https://m.e.labseries.cn.cn.stage.cntel.elcdev.net/checkout/viewcart.tmpl,,,https://m.elabseries.cn.cn.stage.cntel.elcdev.net/account/index.tmpl,http://m.e.labseries.cn.cn.stage.cntel.elcdev.net/product/1528/4712/clean/oil-control-face-wash,http://m.e.labseries.cn.cn.stage.cntel.elcdev.net/product/1528/4601/clean/multi-action-face-wash,https://m.e.labseries.cn.cn.stage.cntel.elcdev.net/product/14984/23870/tone/max-ls-skin-recharging-water-lotion,https://m.e.labseries.cn.cn.stage.cntel.elcdev.net/product/14984/42778/tone/water-lotion/water-lotion-upgrade,https://m.e.labseries.cn.cn.stage.cntel.elcdev.net/product/14983/19621/spf/bb-tinted-moisturizer-spf35-pa,https://m.e.labseries.cn.cn.stage.cntel.elcdev.net/product/1530/44638/moisturize/pro-ls-all-in-one-hydrating-gel,https://m.e.labseries.cn.cn.stage.cntel.elcdev.net/product/1530/40929/moisturize/age-rescue-face-lotion--limited-edition-bonus-size,https://m.e.labseries.cn.cn.stage.cntel.elcdev.net/product/1530/44440/moisturize/maxellence-the-dual-concentrate,https://m.e.labseries.cn.cn.stage.cntel.elcdev.net/product/14985/38350/repair/max-ls-power-v-lifting-serum,https://m.e.labseries.cn.cn.stage.cntel.elcdev.net/product/1530/44439/moisturize/maxellence-the-singular-cream,https://m.e.labseries.cn.cn.stage.cntel.elcdev.net/esearch?form_id=perlgem_search_form&search=face,,123456,cambridge,https://m.e.labseries.cn.cn.stage.cntel.elcdev.net/max-ls,,,,,1,,
TestScripts-PC,TC20_AU_set_Giftwrap_checkout,1,1,https://e.labseries.cn.cn.stage.cntel.elcdev.net,hara011@163.com,123456,Tester,test,古舘,百璽,122 Liuhua Rd,572000,Guangdong,Guangzhou,32165498796,4111110000000000,312,pdtest,,,,sjarre_1360284165_per@gmail.com,elconline,,https://e.labseries.cn.cn.stage.cntel.elcdev.net/checkout/viewcart.tmpl,,,https://e.labseries.cn.cn.stage.cntel.elcdev.net/account/index.tmpl,https://e.labseries.cn.cn.stage.cntel.elcdev.net/product/1528/4712/clean/oil-control-face-wash,https://e.labseries.cn.cn.stage.cntel.elcdev.net/product/1528/4601/clean/multi-action-face-wash,https://e.labseries.cn.cn.stage.cntel.elcdev.net/product/14984/23870/tone/max-ls-skin-recharging-water-lotion,https://e.labseries.cn.cn.stage.cntel.elcdev.net/product/14984/42778/tone/water-lotion/water-lotion-upgrade,https://e.labseries.cn.cn.stage.cntel.elcdev.net/product/14983/19621/spf/bb-tinted-moisturizer-spf35-pa,https://e.labseries.cn.cn.stage.cntel.elcdev.net/product/1530/44638/moisturize/pro-ls-all-in-one-hydrating-gel,https://e.labseries.cn.cn.stage.cntel.elcdev.net/product/1530/40929/moisturize/age-rescue-face-lotion--limited-edition-bonus-size,https://e.labseries.cn.cn.stage.cntel.elcdev.net/product/1530/44440/moisturize/maxellence-the-dual-concentrate,https://e.labseries.cn.cn.stage.cntel.elcdev.net/product/14985/38350/repair/max-ls-power-v-lifting-serum,https://e.labseries.cn.cn.stage.cntel.elcdev.net/product/1530/44439/moisturize/maxellence-the-singular-cream,https://e.labseries.cn.cn.stage.cntel.elcdev.net/esearch?form_id=perlgem_search_form&search=face,,123456,winnipeg,https://e.labseries.cn.cn.stage.cntel.elcdev.net/max-ls,,,,,1,,
TestScripts-Mobile,TC20_AU_set_Giftwrap_checkout,1,1,http://m.e.labseries.cn.cn.stage.cntel.elcdev.net,hara011@163.com,123456,Tester,test,古舘,百璽,122 Liuhua Rd,572000,Guangdong,Guangzhou,32165498796,4111110000000000,312,pdtest,,,,sjarre_1360284165_per@gmail.com,elconline,,https://m.e.labseries.cn.cn.stage.cntel.elcdev.net/checkout/viewcart.tmpl,,,https://m.elabseries.cn.cn.stage.cntel.elcdev.net/account/index.tmpl,http://m.e.labseries.cn.cn.stage.cntel.elcdev.net/product/1528/4712/clean/oil-control-face-wash,http://m.e.labseries.cn.cn.stage.cntel.elcdev.net/product/1528/4601/clean/multi-action-face-wash,https://m.e.labseries.cn.cn.stage.cntel.elcdev.net/product/14984/23870/tone/max-ls-skin-recharging-water-lotion,https://m.e.labseries.cn.cn.stage.cntel.elcdev.net/product/14984/42778/tone/water-lotion/water-lotion-upgrade,https://m.e.labseries.cn.cn.stage.cntel.elcdev.net/product/14983/19621/spf/bb-tinted-moisturizer-spf35-pa,https://m.e.labseries.cn.cn.stage.cntel.elcdev.net/product/1530/44638/moisturize/pro-ls-all-in-one-hydrating-gel,https://m.e.labseries.cn.cn.stage.cntel.elcdev.net/product/1530/40929/moisturize/age-rescue-face-lotion--limited-edition-bonus-size,https://m.e.labseries.cn.cn.stage.cntel.elcdev.net/product/1530/44440/moisturize/maxellence-the-dual-concentrate,https://m.e.labseries.cn.cn.stage.cntel.elcdev.net/product/14985/38350/repair/max-ls-power-v-lifting-serum,https://m.e.labseries.cn.cn.stage.cntel.elcdev.net/product/1530/44439/moisturize/maxellence-the-singular-cream,https://m.e.labseries.cn.cn.stage.cntel.elcdev.net/esearch?form_id=perlgem_search_form&search=face,,123456,cambridge,https://m.e.labseries.cn.cn.stage.cntel.elcdev.net/max-ls,,,,,1,,
TestScripts-PC,TC18_RU_nodetails_profilepagechecks_adddetails,1,1,https://e.labseries.cn.cn.stage.cntel.elcdev.net,hara011@163.com,123456,Tester,test,古舘,百璽,122 Liuhua Rd,572000,Guangdong,Guangzhou,32165498796,4111110000000000,312,pdtest,,,,sjarre_1360284165_per@gmail.com,elconline,,https://e.labseries.cn.cn.stage.cntel.elcdev.net/checkout/viewcart.tmpl,,,https://e.labseries.cn.cn.stage.cntel.elcdev.net/account/index.tmpl,https://e.labseries.cn.cn.stage.cntel.elcdev.net/product/1528/4712/clean/oil-control-face-wash,https://e.labseries.cn.cn.stage.cntel.elcdev.net/product/1528/4601/clean/multi-action-face-wash,https://e.labseries.cn.cn.stage.cntel.elcdev.net/product/14984/23870/tone/max-ls-skin-recharging-water-lotion,https://e.labseries.cn.cn.stage.cntel.elcdev.net/product/14984/42778/tone/water-lotion/water-lotion-upgrade,https://e.labseries.cn.cn.stage.cntel.elcdev.net/product/14983/19621/spf/bb-tinted-moisturizer-spf35-pa,https://e.labseries.cn.cn.stage.cntel.elcdev.net/product/1530/44638/moisturize/pro-ls-all-in-one-hydrating-gel,https://e.labseries.cn.cn.stage.cntel.elcdev.net/product/1530/40929/moisturize/age-rescue-face-lotion--limited-edition-bonus-size,https://e.labseries.cn.cn.stage.cntel.elcdev.net/product/1530/44440/moisturize/maxellence-the-dual-concentrate,https://e.labseries.cn.cn.stage.cntel.elcdev.net/product/14985/38350/repair/max-ls-power-v-lifting-serum,https://e.labseries.cn.cn.stage.cntel.elcdev.net/product/1530/44439/moisturize/maxellence-the-singular-cream,https://e.labseries.cn.cn.stage.cntel.elcdev.net/esearch?form_id=perlgem_search_form&search=face,random7@gmail.com,123456,winnipeg,https://e.labseries.cn.cn.stage.cntel.elcdev.net/max-ls,,,,,1,,
TestScripts-Mobile,TC18_RU_nodetails_profilepagechecks_adddetails,1,1,http://m.e.labseries.cn.cn.stage.cntel.elcdev.net,hara011@163.com,123456,Tester,test,古舘,百璽,122 Liuhua Rd,572000,Guangdong,Guangzhou,32165498796,4111110000000000,312,pdtest,,,,sjarre_1360284165_per@gmail.com,elconline,,https://m.e.labseries.cn.cn.stage.cntel.elcdev.net/checkout/viewcart.tmpl,,,https://m.elabseries.cn.cn.stage.cntel.elcdev.net/account/index.tmpl,http://m.e.labseries.cn.cn.stage.cntel.elcdev.net/product/1528/4712/clean/oil-control-face-wash,http://m.e.labseries.cn.cn.stage.cntel.elcdev.net/product/1528/4601/clean/multi-action-face-wash,https://m.e.labseries.cn.cn.stage.cntel.elcdev.net/product/14984/23870/tone/max-ls-skin-recharging-water-lotion,https://m.e.labseries.cn.cn.stage.cntel.elcdev.net/product/14984/42778/tone/water-lotion/water-lotion-upgrade,https://m.e.labseries.cn.cn.stage.cntel.elcdev.net/product/14983/19621/spf/bb-tinted-moisturizer-spf35-pa,https://m.e.labseries.cn.cn.stage.cntel.elcdev.net/product/1530/44638/moisturize/pro-ls-all-in-one-hydrating-gel,https://m.e.labseries.cn.cn.stage.cntel.elcdev.net/product/1530/40929/moisturize/age-rescue-face-lotion--limited-edition-bonus-size,https://m.e.labseries.cn.cn.stage.cntel.elcdev.net/product/1530/44440/moisturize/maxellence-the-dual-concentrate,https://m.e.labseries.cn.cn.stage.cntel.elcdev.net/product/14985/38350/repair/max-ls-power-v-lifting-serum,https://m.e.labseries.cn.cn.stage.cntel.elcdev.net/product/1530/44439/moisturize/maxellence-the-singular-cream,https://m.e.labseries.cn.cn.stage.cntel.elcdev.net/esearch?form_id=perlgem_search_form&search=face,,123456,cambridge,https://m.e.labseries.cn.cn.stage.cntel.elcdev.net/max-ls,,,,,1,,
TestScripts-PC,TC16_ContactUs,1,1,https://e.labseries.cn.cn.stage.cntel.elcdev.net,hara011@163.com,123456,Tester,test,古舘,百璽,122 Liuhua Rd,572000,Guangdong,Guangzhou,32165498796,4110000000000000,312,pdtest,,,| Lab Series China E-commerce Site,,sjarre_1360284165_per@gmail.com,elconline,https://e.labseries.cn.cn.stage.cntel.elcdev.net/checkout/viewcart.tmpl,,,https://e.labseries.cn.cn.stage.cntel.elcdev.net/account/index.tmpl,https://e.labseries.cn.cn.stage.cntel.elcdev.net/product/1528/4712/clean/oil-control-face-wash,https://e.labseries.cn.cn.stage.cntel.elcdev.net/product/1528/4601/clean/multi-action-face-wash,https://e.labseries.cn.cn.stage.cntel.elcdev.net/product/14984/23870/tone/max-ls-skin-recharging-water-lotion,https://e.labseries.cn.cn.stage.cntel.elcdev.net/product/14984/42778/tone/water-lotion/water-lotion-upgrade,https://e.labseries.cn.cn.stage.cntel.elcdev.net/product/14983/19621/spf/bb-tinted-moisturizer-spf35-pa,https://e.labseries.cn.cn.stage.cntel.elcdev.net/product/1530/44638/moisturize/pro-ls-all-in-one-hydrating-gel,https://e.labseries.cn.cn.stage.cntel.elcdev.net/product/1530/40929/moisturize/age-rescue-face-lotion--limited-edition-bonus-size,https://e.labseries.cn.cn.stage.cntel.elcdev.net/product/1530/44440/moisturize/maxellence-the-dual-concentrate,https://e.labseries.cn.cn.stage.cntel.elcdev.net/product/14985/38350/repair/max-ls-power-v-lifting-serum,https://e.labseries.cn.cn.stage.cntel.elcdev.net/product/1530/44439/moisturize/maxellence-the-singular-cream,https://e.labseries.cn.cn.stage.cntel.elcdev.net/esearch?form_id=perlgem_search_form&search=face,random7@gmail.com,123456,winnipeg,https://e.labseries.cn.cn.stage.cntel.elcdev.net/max-ls,,,,,1,,
TestScripts-Mobile,TC16_ContactUs,1,1,http://m.e.labseries.cn.cn.stage.cntel.elcdev.net,hara011@163.com,123456,Tester,test,古舘,百璽,122 Liuhua Rd,572000,Guangdong,Guangzhou,32165498796,4110000000000000,312,pdtest,,,| Lab Series China E-commerce Site,,sjarre_1360284165_per@gmail.com,elconline,https://m.e.labseries.cn.cn.stage.cntel.elcdev.net/checkout/viewcart.tmpl,,,https://m.elabseries.cn.cn.stage.cntel.elcdev.net/account/index.tmpl,http://m.e.labseries.cn.cn.stage.cntel.elcdev.net/product/1528/4712/clean/oil-control-face-wash,http://m.e.labseries.cn.cn.stage.cntel.elcdev.net/product/1528/4601/clean/multi-action-face-wash,https://m.e.labseries.cn.cn.stage.cntel.elcdev.net/product/14984/23870/tone/max-ls-skin-recharging-water-lotion,https://m.e.labseries.cn.cn.stage.cntel.elcdev.net/product/14984/42778/tone/water-lotion/water-lotion-upgrade,https://m.e.labseries.cn.cn.stage.cntel.elcdev.net/product/14983/19621/spf/bb-tinted-moisturizer-spf35-pa,https://m.e.labseries.cn.cn.stage.cntel.elcdev.net/product/1530/44638/moisturize/pro-ls-all-in-one-hydrating-gel,https://m.e.labseries.cn.cn.stage.cntel.elcdev.net/product/1530/40929/moisturize/age-rescue-face-lotion--limited-edition-bonus-size,https://m.e.labseries.cn.cn.stage.cntel.elcdev.net/product/1530/44440/moisturize/maxellence-the-dual-concentrate,https://m.e.labseries.cn.cn.stage.cntel.elcdev.net/product/14985/38350/repair/max-ls-power-v-lifting-serum,https://m.e.labseries.cn.cn.stage.cntel.elcdev.net/product/1530/44439/moisturize/maxellence-the-singular-cream,https://m.e.labseries.cn.cn.stage.cntel.elcdev.net/esearch?form_id=perlgem_search_form&search=face,,123456,cambridge,https://m.e.labseries.cn.cn.stage.cntel.elcdev.net/max-ls,,,,,1,,
