Step,ObjectName,Description,Action,Input,Condition,Reference
1,Browser,Open the Url [<Data>] in the Browser,Open,Desktop:URL,,
2,close,Click on [<Object>],clickByJS,,,Checkout
3,EmailSignUp,Hover over the [<Object>] element,conditionalWait,,,EmailSignUp
4,EmailSignUp,Hover over the [<Object>] element,mouseOverElement,,,EmailSignUp
5,FirstName,Wait  for the element [<Object>] to be present,conditionalWait,,,EmailSignUp
6,FirstName,Enter the value [<Data>] in the Field [<Object>],Set,Desktop:UserName,,EmailSignUp
7,SignUp,Click on [<Object>],clickByJS,,,EmailSignUp
8,Browser,Wait for [<Data>] milli seconds,pause,@8000,,
9,Browser,Wait for Page to be loaded,waitForPageLoaded,,,
10,Browser,Wait for Page to be loaded,pause,@7000,,
11,Thank you,Wait untill given condition is satisfied,conditionalWait,,,EmailSignUp
12,Thank you,Assert if [<Object>]'s Text Contains [Ignorecase] [<Data>],assertElementTextIContains,@谢谢您,,EmailSignUp
