Step,ObjectName,Description,Action,Input,Condition,Reference
1,Browser,,pause,@8000,,
2,PaymentEdit,,clickByJS,,,Edit
3,Browser,,pause,@5000,,
4,AddNewPaymentMethod,,waitForElementToBeClickable,,,Edit
5,AddNewPaymentMethod,,clickByJS,,,Edit
6,Browser,,waitForPageLoaded,,,
7,Browser,,pause,@3000,,
8,CC,,waitForElementToBePresent,,,Checkout
9,CC,,Set,@5555555555554444,,Checkout
10,Month,,selectByIndex,@5,,Checkout
11,Year,,selectByIndex,@5,,Checkout
12,Browser,,pause,@3000,,
13,MakeDefaultPayment,,clickByJS,,,AddPayment
14,Browser,,pause,@3000,,
15,SelectAddress,,selectByIndex,@1,,AddPayment
16,Continue payment,,clickByJS,,,Checkout
17,Browser,,waitForPageLoaded,,,
18,Browser,,pause,@5000,,
