Run Information
========================
cognizant.intelligent.test.scripter.engine : 1.0
java.runtime.name    : Java(TM) SE Runtime Environment
java.version         : 1.8.0_131
java.home            : C:\Program Files\Java\jre1.8.0_131
os.name              : Windows 7
os.arch              : amd64
os.version           : 6.1
file.encoding        : UTF-8
========================
Run Started on Wed Apr 18 17:51:22 IST 2018
Loading Browser Profile
Loading RunManager
[Scenario:TestScripts-PC] [TestCase: TC06_Store_Locator] [Description: Test Run] [Browser: Chrome_Auth] [BrowserVersion: default] [Platform: ANY][ExistingBrowser: false]
Initializing Report
ApiLink not available!!
Shutting Down Thread as there is no need for SelectiveThreading
Run Finished on Wed Apr 18 17:51:22 IST 2018
-----------------------------------------------------
ExecutionDate        : 18-Apr-2018 17-51-17
Executed TestCases   : 0
Passed TestCases     : 0
Failed TestCases     : 0
Time Taken           : 00:00:00
ReportPath           : file:///C:\Users\tanveer.nigar\Desktop\cits-spritz-102617\Projects\LS_CH_RegressionPack\Results\TestDesign\TestScripts-PC\TC06_Store_Locator\18-Apr-2018_17-51-17\summary.html
-----------------------------------------------------
