Step,ObjectName,Description,Action,Input,Condition,Reference
1,Browser,,Open,Desktop:MyAccountURL,,
2,Browser,,waitForPageLoaded,,,
3,Browser,,pause,@12000,,
4,Browser,,sendKeysToWindow,@Esc,,
5,Close button,,ClickIfExists,,,UnusedElements
6,Browser,,pause,@5000,,
7,UploadPhoto,,clickByJS,,,Cosmetics
8,Browser,,pause,@5000,,
9,ChooseFile,,clickByJS,,,Cosmetics
10,Browser,,pause,@3000,,
11,App,,openApp,@C:\Automation\AUTOIT\FileUpload.exe,,
12,Browser,,pause,@5000,,
13,SaveFile,,clickByJS,,,Cosmetics
14,Browser,,pause,@8000,,
15,RemovePhoto,,assertElementPresent,,,Cosmetics
16,RemovePhoto,,clickByJS,,,Cosmetics
17,Browser,,pause,@5000,,
18,Browser,,sendKeysToWindow,@Enter,,
19,Browser,,pause,@3000,,
20,Browser,,refreshDriver,,,
21,Browser,,pause,@3000,,
