Step,ObjectName,Description,Action,Input,Condition,Reference
1,Browser,,Open,Desktop:MyAccountURL,,
2,Browser,,waitForPageLoaded,,,
3,Browser,,pause,@5000,,
4,SignOut,,ClickIfExists,,,Checkout
5,Browser,,waitForPageLoaded,,,
6,Browser,,pause,@3000,,
7,Browser,,sendKeysToWindow,@Esc,,
