Step,ObjectName,Description,Action,Input,Condition,Reference
"//1",Execute,,BaseRC:OpenAutoIt,,,
2,Execute,,BaseRC:MultiPass,,,
3,Execute,,TC06:StoreLocatorNavigation,,,
4,Execute,,TC06:SearchWithState,,,
"//5",Execute,,BaseRC:CloseAutoIt,,,
